Top +:

FracRecoveredP = {
{500,  102464/2672700}, 
{750,  560810/2672685}, 
{875,  818438/2666941}, 
{1000, 1022976/2670953}, 
{1125, 1182526/2669471}, 
{1250, 1312926/2669028}, 
{1375, 1416328/2668054}, 
{1500, 1507235/2673203}, 
{2000, 1728235/2670146}, 
{2500, 1841946/2671220}, 
{3000, 1907673/2674443}, 
{3500, 1944653/2670352}, 
{4000, 1972927/2670104}, 
{4500, 1997552/2673075}, 
{5000, 1995499/2673412}
}

FracBotInP = {
{500,  73.9790/100}, 
{750,  75.4175/100}, 
{875,  75.8227/100}, 
{1000, 76.1772/100}, 
{1125, 76.4165/100}, 
{1250, 76.6575/100}, 
{1375, 76.7645/100}, 
{1500, 76.9413/100}, 
{2000, 77.2431/100}, 
{2500, 77.4696/100}, 
{3000, 77.5562/100}, 
{3500, 77.6748/100}, 
{4000, 77.7470/100}, 
{4500, 77.7475/100}, 
{5000, 77.8011/100}
}


FracBotOutP = {
{500,  74.1177/100}, 
{750,  75.9304/100}, 
{875,  76.2133/100}, 
{1000, 76.3915/100}, 
{1125, 76.6202/100}, 
{1250, 76.8174/100}, 
{1375, 76.8794/100}, 
{1500, 77.0193/100}, 
{2000, 77.2132/100}, 
{2500, 77.4244/100}, 
{3000, 77.5176/100}, 
{3500, 77.6228/100}, 
{4000, 77.7643/100}, 
{4500, 77.7869/100}, 
{5000, 77.8466/100}
}





























